-- Merging decision tree log ---
manifest
ADDED from D:\Andrew\workspace\openspritz-bible-android-app\app\src\main\AndroidManifest.xml:2:1-36:12
INJECTED from D:\Andrew\workspace\openspritz-bible-android-app\app\src\main\AndroidManifest.xml:2:1-36:12
INJECTED from D:\Andrew\workspace\openspritz-bible-android-app\app\src\main\AndroidManifest.xml:2:1-36:12
INJECTED from D:\Andrew\workspace\openspritz-bible-android-app\app\src\main\AndroidManifest.xml:2:1-36:12
MERGED from [androidx.navigation:navigation-ui:2.3.5] C:\Users\Admin\.gradle\caches\transforms-2\files-2.1\847732ca28dfba6583976f9789b9bdcc\navigation-ui-2.3.5\AndroidManifest.xml:17:1-24:12
MERGED from [com.google.android.material:material:1.3.0] C:\Users\Admin\.gradle\caches\transforms-2\files-2.1\723282c7994550298e26d567cb0e519b\material-1.3.0\AndroidManifest.xml:17:1-24:12
MERGED from [androidx.constraintlayout:constraintlayout:2.0.4] C:\Users\Admin\.gradle\caches\transforms-2\files-2.1\9570f34841c72a34d773388f89286f55\constraintlayout-2.0.4\AndroidManifest.xml:2:1-11:12
MERGED from [androidx.preference:preference:1.1.1] C:\Users\Admin\.gradle\caches\transforms-2\files-2.1\b7f624538b3b9b419a197115fa477125\preference-1.1.1\AndroidManifest.xml:17:1-24:12
MERGED from [com.andrewgiang.spritzertextview:library:0.3.4] C:\Users\Admin\.gradle\caches\transforms-2\files-2.1\a9d6ac61ec35ead843f2c10901b1259d\jetified-library-0.3.4\AndroidManifest.xml:2:1-9:12
MERGED from [androidx.appcompat:appcompat:1.2.0] C:\Users\Admin\.gradle\caches\transforms-2\files-2.1\0cb9ff486f5edb59977e253831b932c8\appcompat-1.2.0\AndroidManifest.xml:17:1-24:12
MERGED from [androidx.navigation:navigation-fragment:2.3.5] C:\Users\Admin\.gradle\caches\transforms-2\files-2.1\c1d7732b2c1f1646f7e3417de25cf8af\navigation-fragment-2.3.5\AndroidManifest.xml:17:1-24:12
MERGED from [androidx.lifecycle:lifecycle-livedata-ktx:2.3.1] C:\Users\Admin\.gradle\caches\transforms-2\files-2.1\395c179573a1ec0b24f1a0d7c6abd4e7\jetified-lifecycle-livedata-ktx-2.3.1\AndroidManifest.xml:17:1-24:12
MERGED from [androidx.lifecycle:lifecycle-viewmodel-ktx:2.3.1] C:\Users\Admin\.gradle\caches\transforms-2\files-2.1\fd74ebe60486e493c5ceda606d401764\jetified-lifecycle-viewmodel-ktx-2.3.1\AndroidManifest.xml:17:1-24:12
MERGED from [androidx.cursoradapter:cursoradapter:1.0.0] C:\Users\Admin\.gradle\caches\transforms-2\files-2.1\5dbc57b58024a8f25b5db3778841ef05\cursoradapter-1.0.0\AndroidManifest.xml:17:1-22:12
MERGED from [androidx.appcompat:appcompat-resources:1.2.0] C:\Users\Admin\.gradle\caches\transforms-2\files-2.1\47185ad723d232e6208c03e6fdcb34a4\jetified-appcompat-resources-1.2.0\AndroidManifest.xml:17:1-24:12
MERGED from [androidx.cardview:cardview:1.0.0] C:\Users\Admin\.gradle\caches\transforms-2\files-2.1\18765b93ee4c46f41bb1a4f0caf56779\cardview-1.0.0\AndroidManifest.xml:17:1-22:12
MERGED from [androidx.coordinatorlayout:coordinatorlayout:1.1.0] C:\Users\Admin\.gradle\caches\transforms-2\files-2.1\4535ee444820ae18ff97d0ebf60d51c6\coordinatorlayout-1.1.0\AndroidManifest.xml:17:1-24:12
MERGED from [androidx.vectordrawable:vectordrawable-animated:1.1.0] C:\Users\Admin\.gradle\caches\transforms-2\files-2.1\666ad058b1d9c3d7c4bdf80afbc3e64c\vectordrawable-animated-1.1.0\AndroidManifest.xml:17:1-24:12
MERGED from [androidx.vectordrawable:vectordrawable:1.1.0] C:\Users\Admin\.gradle\caches\transforms-2\files-2.1\a9578e6bb35b0664a235fe136bea7086\vectordrawable-1.1.0\AndroidManifest.xml:17:1-24:12
MERGED from [androidx.viewpager2:viewpager2:1.0.0] C:\Users\Admin\.gradle\caches\transforms-2\files-2.1\939730d5a02951a4e6900dbf39441da5\jetified-viewpager2-1.0.0\AndroidManifest.xml:17:1-24:12
MERGED from [androidx.dynamicanimation:dynamicanimation:1.0.0] C:\Users\Admin\.gradle\caches\transforms-2\files-2.1\7dc97d5beadbae66ede9b95e497a48ab\dynamicanimation-1.0.0\AndroidManifest.xml:17:1-22:12
MERGED from [androidx.fragment:fragment:1.2.4] C:\Users\Admin\.gradle\caches\transforms-2\files-2.1\d498e635f8fdaa9d89d6b2227472c73b\fragment-1.2.4\AndroidManifest.xml:17:1-24:12
MERGED from [androidx.drawerlayout:drawerlayout:1.1.1] C:\Users\Admin\.gradle\caches\transforms-2\files-2.1\3f15953fb432c97499741f4642da4e9e\drawerlayout-1.1.1\AndroidManifest.xml:17:1-24:12
MERGED from [androidx.transition:transition:1.3.0] C:\Users\Admin\.gradle\caches\transforms-2\files-2.1\3186091f04618afe9438501662bef563\transition-1.3.0\AndroidManifest.xml:17:1-24:12
MERGED from [androidx.recyclerview:recyclerview:1.1.0] C:\Users\Admin\.gradle\caches\transforms-2\files-2.1\8eb429c297537d6ea02c3f7824ce56bd\recyclerview-1.1.0\AndroidManifest.xml:17:1-24:12
MERGED from [androidx.viewpager:viewpager:1.0.0] C:\Users\Admin\.gradle\caches\transforms-2\files-2.1\84abe344207c34d4a56c6167bf93e6d4\viewpager-1.0.0\AndroidManifest.xml:17:1-22:12
MERGED from [androidx.customview:customview:1.1.0] C:\Users\Admin\.gradle\caches\transforms-2\files-2.1\ab7115890f56e160693dd724b387ceaf\customview-1.1.0\AndroidManifest.xml:17:1-24:12
MERGED from [androidx.legacy:legacy-support-core-utils:1.0.0] C:\Users\Admin\.gradle\caches\transforms-2\files-2.1\3c5e939b0e6b29bdf460a7fe7fc8149e\legacy-support-core-utils-1.0.0\AndroidManifest.xml:17:1-22:12
MERGED from [androidx.loader:loader:1.0.0] C:\Users\Admin\.gradle\caches\transforms-2\files-2.1\f2d63b2c28ee1d548ef27f10c2385caa\loader-1.0.0\AndroidManifest.xml:17:1-22:12
MERGED from [androidx.navigation:navigation-runtime:2.3.5] C:\Users\Admin\.gradle\caches\transforms-2\files-2.1\4b1d5baef969d8c804b232fa365a7aa8\navigation-runtime-2.3.5\AndroidManifest.xml:17:1-24:12
MERGED from [androidx.activity:activity:1.1.0] C:\Users\Admin\.gradle\caches\transforms-2\files-2.1\90a60abe22ea5e1350069da519987351\jetified-activity-1.1.0\AndroidManifest.xml:17:1-24:12
MERGED from [androidx.navigation:navigation-common:2.3.5] C:\Users\Admin\.gradle\caches\transforms-2\files-2.1\f993303e78f9a1921ec5b4016d06fc20\navigation-common-2.3.5\AndroidManifest.xml:17:1-24:12
MERGED from [androidx.core:core:1.3.1] C:\Users\Admin\.gradle\caches\transforms-2\files-2.1\b234a824af7fd98a5c54fc0522824a91\core-1.3.1\AndroidManifest.xml:17:1-26:12
MERGED from [androidx.lifecycle:lifecycle-viewmodel-savedstate:2.2.0] C:\Users\Admin\.gradle\caches\transforms-2\files-2.1\b81238c1dc5b20d59b0dcafc4f4027a0\jetified-lifecycle-viewmodel-savedstate-2.2.0\AndroidManifest.xml:17:1-24:12
MERGED from [androidx.lifecycle:lifecycle-viewmodel:2.3.1] C:\Users\Admin\.gradle\caches\transforms-2\files-2.1\c168a157020fe31d02d282d75c0d361c\lifecycle-viewmodel-2.3.1\AndroidManifest.xml:17:1-24:12
MERGED from [androidx.versionedparcelable:versionedparcelable:1.1.0] C:\Users\Admin\.gradle\caches\transforms-2\files-2.1\90ecde5404179819368e2359ab771b50\versionedparcelable-1.1.0\AndroidManifest.xml:17:1-27:12
MERGED from [androidx.savedstate:savedstate:1.0.0] C:\Users\Admin\.gradle\caches\transforms-2\files-2.1\512febfd0468b29d551bd267612a464f\jetified-savedstate-1.0.0\AndroidManifest.xml:17:1-24:12
MERGED from [androidx.lifecycle:lifecycle-runtime:2.2.0] C:\Users\Admin\.gradle\caches\transforms-2\files-2.1\f32a0d6239ad601f72e9493b4c39c0c2\lifecycle-runtime-2.2.0\AndroidManifest.xml:17:1-24:12
MERGED from [androidx.lifecycle:lifecycle-livedata:2.3.1] C:\Users\Admin\.gradle\caches\transforms-2\files-2.1\1b23d2c15f7493c601d541da8c74a895\lifecycle-livedata-2.3.1\AndroidManifest.xml:17:1-24:12
MERGED from [androidx.lifecycle:lifecycle-livedata-core-ktx:2.3.1] C:\Users\Admin\.gradle\caches\transforms-2\files-2.1\9b80a21b28cf4e387a08950b93c3fdfd\jetified-lifecycle-livedata-core-ktx-2.3.1\AndroidManifest.xml:17:1-24:12
MERGED from [androidx.lifecycle:lifecycle-livedata-core:2.3.1] C:\Users\Admin\.gradle\caches\transforms-2\files-2.1\1bf9ec35ea65fc70bcb81ae030c5cf4b\lifecycle-livedata-core-2.3.1\AndroidManifest.xml:17:1-24:12
MERGED from [androidx.arch.core:core-runtime:2.1.0] C:\Users\Admin\.gradle\caches\transforms-2\files-2.1\a6ca4f9f3ef5bd7ddcaac8d3ff2baf6c\core-runtime-2.1.0\AndroidManifest.xml:17:1-24:12
MERGED from [androidx.interpolator:interpolator:1.0.0] C:\Users\Admin\.gradle\caches\transforms-2\files-2.1\722883bbeda4a23af2c332d7342ff3d3\interpolator-1.0.0\AndroidManifest.xml:17:1-22:12
MERGED from [androidx.documentfile:documentfile:1.0.0] C:\Users\Admin\.gradle\caches\transforms-2\files-2.1\fb5e65a69b576ac546080993fe26d407\documentfile-1.0.0\AndroidManifest.xml:17:1-22:12
MERGED from [androidx.localbroadcastmanager:localbroadcastmanager:1.0.0] C:\Users\Admin\.gradle\caches\transforms-2\files-2.1\7b69e6173655717e69f5c7f6f1302d3b\localbroadcastmanager-1.0.0\AndroidManifest.xml:17:1-22:12
MERGED from [androidx.print:print:1.0.0] C:\Users\Admin\.gradle\caches\transforms-2\files-2.1\8fe2a3deec1ef3dd659aa5f55d73edd7\print-1.0.0\AndroidManifest.xml:17:1-22:12
MERGED from [androidx.annotation:annotation-experimental:1.0.0] C:\Users\Admin\.gradle\caches\transforms-2\files-2.1\adf8d4ec58c98f5b37616cb4b06b74f4\jetified-annotation-experimental-1.0.0\AndroidManifest.xml:17:1-24:12
INJECTED from D:\Andrew\workspace\openspritz-bible-android-app\app\src\main\AndroidManifest.xml:2:1-36:12
INJECTED from D:\Andrew\workspace\openspritz-bible-android-app\app\src\main\AndroidManifest.xml:2:1-36:12
INJECTED from D:\Andrew\workspace\openspritz-bible-android-app\app\src\main\AndroidManifest.xml:2:1-36:12
	package
		ADDED from D:\Andrew\workspace\openspritz-bible-android-app\app\src\main\AndroidManifest.xml:3:5-44
		INJECTED from D:\Andrew\workspace\openspritz-bible-android-app\app\src\main\AndroidManifest.xml
		INJECTED from D:\Andrew\workspace\openspritz-bible-android-app\app\src\main\AndroidManifest.xml
	android:versionName
		INJECTED from D:\Andrew\workspace\openspritz-bible-android-app\app\src\main\AndroidManifest.xml
		ADDED from D:\Andrew\workspace\openspritz-bible-android-app\app\src\main\AndroidManifest.xml:2:1-36:12
		INJECTED from D:\Andrew\workspace\openspritz-bible-android-app\app\src\main\AndroidManifest.xml
	android:versionCode
		INJECTED from D:\Andrew\workspace\openspritz-bible-android-app\app\src\main\AndroidManifest.xml
		ADDED from D:\Andrew\workspace\openspritz-bible-android-app\app\src\main\AndroidManifest.xml:2:1-36:12
		INJECTED from D:\Andrew\workspace\openspritz-bible-android-app\app\src\main\AndroidManifest.xml
	xmlns:android
		ADDED from D:\Andrew\workspace\openspritz-bible-android-app\app\src\main\AndroidManifest.xml:2:11-69
uses-permission#android.permission.INTERNET
ADDED from D:\Andrew\workspace\openspritz-bible-android-app\app\src\main\AndroidManifest.xml:5:5-67
	android:name
		ADDED from D:\Andrew\workspace\openspritz-bible-android-app\app\src\main\AndroidManifest.xml:5:22-64
application
ADDED from D:\Andrew\workspace\openspritz-bible-android-app\app\src\main\AndroidManifest.xml:7:5-34:19
MERGED from [com.google.android.material:material:1.3.0] C:\Users\Admin\.gradle\caches\transforms-2\files-2.1\723282c7994550298e26d567cb0e519b\material-1.3.0\AndroidManifest.xml:22:5-20
MERGED from [com.google.android.material:material:1.3.0] C:\Users\Admin\.gradle\caches\transforms-2\files-2.1\723282c7994550298e26d567cb0e519b\material-1.3.0\AndroidManifest.xml:22:5-20
MERGED from [androidx.constraintlayout:constraintlayout:2.0.4] C:\Users\Admin\.gradle\caches\transforms-2\files-2.1\9570f34841c72a34d773388f89286f55\constraintlayout-2.0.4\AndroidManifest.xml:9:5-20
MERGED from [androidx.constraintlayout:constraintlayout:2.0.4] C:\Users\Admin\.gradle\caches\transforms-2\files-2.1\9570f34841c72a34d773388f89286f55\constraintlayout-2.0.4\AndroidManifest.xml:9:5-20
MERGED from [com.andrewgiang.spritzertextview:library:0.3.4] C:\Users\Admin\.gradle\caches\transforms-2\files-2.1\a9d6ac61ec35ead843f2c10901b1259d\jetified-library-0.3.4\AndroidManifest.xml:5:5-7:19
MERGED from [com.andrewgiang.spritzertextview:library:0.3.4] C:\Users\Admin\.gradle\caches\transforms-2\files-2.1\a9d6ac61ec35ead843f2c10901b1259d\jetified-library-0.3.4\AndroidManifest.xml:5:5-7:19
MERGED from [androidx.core:core:1.3.1] C:\Users\Admin\.gradle\caches\transforms-2\files-2.1\b234a824af7fd98a5c54fc0522824a91\core-1.3.1\AndroidManifest.xml:24:5-89
MERGED from [androidx.core:core:1.3.1] C:\Users\Admin\.gradle\caches\transforms-2\files-2.1\b234a824af7fd98a5c54fc0522824a91\core-1.3.1\AndroidManifest.xml:24:5-89
MERGED from [androidx.versionedparcelable:versionedparcelable:1.1.0] C:\Users\Admin\.gradle\caches\transforms-2\files-2.1\90ecde5404179819368e2359ab771b50\versionedparcelable-1.1.0\AndroidManifest.xml:24:5-25:19
MERGED from [androidx.versionedparcelable:versionedparcelable:1.1.0] C:\Users\Admin\.gradle\caches\transforms-2\files-2.1\90ecde5404179819368e2359ab771b50\versionedparcelable-1.1.0\AndroidManifest.xml:24:5-25:19
	android:appComponentFactory
		ADDED from [androidx.core:core:1.3.1] C:\Users\Admin\.gradle\caches\transforms-2\files-2.1\b234a824af7fd98a5c54fc0522824a91\core-1.3.1\AndroidManifest.xml:24:18-86
	android:supportsRtl
		ADDED from D:\Andrew\workspace\openspritz-bible-android-app\app\src\main\AndroidManifest.xml:12:9-35
	android:label
		ADDED from D:\Andrew\workspace\openspritz-bible-android-app\app\src\main\AndroidManifest.xml:10:9-41
	android:roundIcon
		ADDED from D:\Andrew\workspace\openspritz-bible-android-app\app\src\main\AndroidManifest.xml:11:9-50
	android:icon
		ADDED from D:\Andrew\workspace\openspritz-bible-android-app\app\src\main\AndroidManifest.xml:9:9-45
	android:allowBackup
		ADDED from D:\Andrew\workspace\openspritz-bible-android-app\app\src\main\AndroidManifest.xml:8:9-35
	android:theme
		ADDED from D:\Andrew\workspace\openspritz-bible-android-app\app\src\main\AndroidManifest.xml:13:9-51
activity#mx.x10.ampers.openspritzbible.MainActivity
ADDED from D:\Andrew\workspace\openspritz-bible-android-app\app\src\main\AndroidManifest.xml:14:9-22:20
	android:label
		ADDED from D:\Andrew\workspace\openspritz-bible-android-app\app\src\main\AndroidManifest.xml:16:13-45
	android:theme
		ADDED from D:\Andrew\workspace\openspritz-bible-android-app\app\src\main\AndroidManifest.xml:17:13-67
	android:name
		ADDED from D:\Andrew\workspace\openspritz-bible-android-app\app\src\main\AndroidManifest.xml:15:13-41
intent-filter#action:name:android.intent.action.MAIN+category:name:android.intent.category.LAUNCHER
ADDED from D:\Andrew\workspace\openspritz-bible-android-app\app\src\main\AndroidManifest.xml:18:13-21:29
action#android.intent.action.MAIN
ADDED from D:\Andrew\workspace\openspritz-bible-android-app\app\src\main\AndroidManifest.xml:19:17-69
	android:name
		ADDED from D:\Andrew\workspace\openspritz-bible-android-app\app\src\main\AndroidManifest.xml:19:25-66
category#android.intent.category.LAUNCHER
ADDED from D:\Andrew\workspace\openspritz-bible-android-app\app\src\main\AndroidManifest.xml:20:17-77
	android:name
		ADDED from D:\Andrew\workspace\openspritz-bible-android-app\app\src\main\AndroidManifest.xml:20:27-74
activity#mx.x10.ampers.openspritzbible.SettingsActivity
ADDED from D:\Andrew\workspace\openspritz-bible-android-app\app\src\main\AndroidManifest.xml:24:9-32:20
	android:label
		ADDED from D:\Andrew\workspace\openspritz-bible-android-app\app\src\main\AndroidManifest.xml:26:13-52
	android:configChanges
		ADDED from D:\Andrew\workspace\openspritz-bible-android-app\app\src\main\AndroidManifest.xml:27:13-90
	android:theme
		ADDED from D:\Andrew\workspace\openspritz-bible-android-app\app\src\main\AndroidManifest.xml:28:13-55
	android:name
		ADDED from D:\Andrew\workspace\openspritz-bible-android-app\app\src\main\AndroidManifest.xml:25:13-45
meta-data#android.support.PARENT_ACTIVITY
ADDED from D:\Andrew\workspace\openspritz-bible-android-app\app\src\main\AndroidManifest.xml:29:13-31:49
	android:value
		ADDED from D:\Andrew\workspace\openspritz-bible-android-app\app\src\main\AndroidManifest.xml:31:17-46
	android:name
		ADDED from D:\Andrew\workspace\openspritz-bible-android-app\app\src\main\AndroidManifest.xml:30:17-63
uses-sdk
INJECTED from D:\Andrew\workspace\openspritz-bible-android-app\app\src\main\AndroidManifest.xml reason: use-sdk injection requested
INJECTED from D:\Andrew\workspace\openspritz-bible-android-app\app\src\main\AndroidManifest.xml
INJECTED from D:\Andrew\workspace\openspritz-bible-android-app\app\src\main\AndroidManifest.xml
MERGED from [androidx.navigation:navigation-ui:2.3.5] C:\Users\Admin\.gradle\caches\transforms-2\files-2.1\847732ca28dfba6583976f9789b9bdcc\navigation-ui-2.3.5\AndroidManifest.xml:20:5-22:41
MERGED from [androidx.navigation:navigation-ui:2.3.5] C:\Users\Admin\.gradle\caches\transforms-2\files-2.1\847732ca28dfba6583976f9789b9bdcc\navigation-ui-2.3.5\AndroidManifest.xml:20:5-22:41
MERGED from [com.google.android.material:material:1.3.0] C:\Users\Admin\.gradle\caches\transforms-2\files-2.1\723282c7994550298e26d567cb0e519b\material-1.3.0\AndroidManifest.xml:20:5-44
MERGED from [com.google.android.material:material:1.3.0] C:\Users\Admin\.gradle\caches\transforms-2\files-2.1\723282c7994550298e26d567cb0e519b\material-1.3.0\AndroidManifest.xml:20:5-44
MERGED from [androidx.constraintlayout:constraintlayout:2.0.4] C:\Users\Admin\.gradle\caches\transforms-2\files-2.1\9570f34841c72a34d773388f89286f55\constraintlayout-2.0.4\AndroidManifest.xml:5:5-7:41
MERGED from [androidx.constraintlayout:constraintlayout:2.0.4] C:\Users\Admin\.gradle\caches\transforms-2\files-2.1\9570f34841c72a34d773388f89286f55\constraintlayout-2.0.4\AndroidManifest.xml:5:5-7:41
MERGED from [androidx.preference:preference:1.1.1] C:\Users\Admin\.gradle\caches\transforms-2\files-2.1\b7f624538b3b9b419a197115fa477125\preference-1.1.1\AndroidManifest.xml:20:5-22:41
MERGED from [androidx.preference:preference:1.1.1] C:\Users\Admin\.gradle\caches\transforms-2\files-2.1\b7f624538b3b9b419a197115fa477125\preference-1.1.1\AndroidManifest.xml:20:5-22:41
MERGED from [com.andrewgiang.spritzertextview:library:0.3.4] C:\Users\Admin\.gradle\caches\transforms-2\files-2.1\a9d6ac61ec35ead843f2c10901b1259d\jetified-library-0.3.4\AndroidManifest.xml:3:5-73
MERGED from [com.andrewgiang.spritzertextview:library:0.3.4] C:\Users\Admin\.gradle\caches\transforms-2\files-2.1\a9d6ac61ec35ead843f2c10901b1259d\jetified-library-0.3.4\AndroidManifest.xml:3:5-73
MERGED from [androidx.appcompat:appcompat:1.2.0] C:\Users\Admin\.gradle\caches\transforms-2\files-2.1\0cb9ff486f5edb59977e253831b932c8\appcompat-1.2.0\AndroidManifest.xml:20:5-22:41
MERGED from [androidx.appcompat:appcompat:1.2.0] C:\Users\Admin\.gradle\caches\transforms-2\files-2.1\0cb9ff486f5edb59977e253831b932c8\appcompat-1.2.0\AndroidManifest.xml:20:5-22:41
MERGED from [androidx.navigation:navigation-fragment:2.3.5] C:\Users\Admin\.gradle\caches\transforms-2\files-2.1\c1d7732b2c1f1646f7e3417de25cf8af\navigation-fragment-2.3.5\AndroidManifest.xml:20:5-22:41
MERGED from [androidx.navigation:navigation-fragment:2.3.5] C:\Users\Admin\.gradle\caches\transforms-2\files-2.1\c1d7732b2c1f1646f7e3417de25cf8af\navigation-fragment-2.3.5\AndroidManifest.xml:20:5-22:41
MERGED from [androidx.lifecycle:lifecycle-livedata-ktx:2.3.1] C:\Users\Admin\.gradle\caches\transforms-2\files-2.1\395c179573a1ec0b24f1a0d7c6abd4e7\jetified-lifecycle-livedata-ktx-2.3.1\AndroidManifest.xml:20:5-22:41
MERGED from [androidx.lifecycle:lifecycle-livedata-ktx:2.3.1] C:\Users\Admin\.gradle\caches\transforms-2\files-2.1\395c179573a1ec0b24f1a0d7c6abd4e7\jetified-lifecycle-livedata-ktx-2.3.1\AndroidManifest.xml:20:5-22:41
MERGED from [androidx.lifecycle:lifecycle-viewmodel-ktx:2.3.1] C:\Users\Admin\.gradle\caches\transforms-2\files-2.1\fd74ebe60486e493c5ceda606d401764\jetified-lifecycle-viewmodel-ktx-2.3.1\AndroidManifest.xml:20:5-22:41
MERGED from [androidx.lifecycle:lifecycle-viewmodel-ktx:2.3.1] C:\Users\Admin\.gradle\caches\transforms-2\files-2.1\fd74ebe60486e493c5ceda606d401764\jetified-lifecycle-viewmodel-ktx-2.3.1\AndroidManifest.xml:20:5-22:41
MERGED from [androidx.cursoradapter:cursoradapter:1.0.0] C:\Users\Admin\.gradle\caches\transforms-2\files-2.1\5dbc57b58024a8f25b5db3778841ef05\cursoradapter-1.0.0\AndroidManifest.xml:20:5-44
MERGED from [androidx.cursoradapter:cursoradapter:1.0.0] C:\Users\Admin\.gradle\caches\transforms-2\files-2.1\5dbc57b58024a8f25b5db3778841ef05\cursoradapter-1.0.0\AndroidManifest.xml:20:5-44
MERGED from [androidx.appcompat:appcompat-resources:1.2.0] C:\Users\Admin\.gradle\caches\transforms-2\files-2.1\47185ad723d232e6208c03e6fdcb34a4\jetified-appcompat-resources-1.2.0\AndroidManifest.xml:20:5-22:41
MERGED from [androidx.appcompat:appcompat-resources:1.2.0] C:\Users\Admin\.gradle\caches\transforms-2\files-2.1\47185ad723d232e6208c03e6fdcb34a4\jetified-appcompat-resources-1.2.0\AndroidManifest.xml:20:5-22:41
MERGED from [androidx.cardview:cardview:1.0.0] C:\Users\Admin\.gradle\caches\transforms-2\files-2.1\18765b93ee4c46f41bb1a4f0caf56779\cardview-1.0.0\AndroidManifest.xml:20:5-44
MERGED from [androidx.cardview:cardview:1.0.0] C:\Users\Admin\.gradle\caches\transforms-2\files-2.1\18765b93ee4c46f41bb1a4f0caf56779\cardview-1.0.0\AndroidManifest.xml:20:5-44
MERGED from [androidx.coordinatorlayout:coordinatorlayout:1.1.0] C:\Users\Admin\.gradle\caches\transforms-2\files-2.1\4535ee444820ae18ff97d0ebf60d51c6\coordinatorlayout-1.1.0\AndroidManifest.xml:20:5-22:41
MERGED from [androidx.coordinatorlayout:coordinatorlayout:1.1.0] C:\Users\Admin\.gradle\caches\transforms-2\files-2.1\4535ee444820ae18ff97d0ebf60d51c6\coordinatorlayout-1.1.0\AndroidManifest.xml:20:5-22:41
MERGED from [androidx.vectordrawable:vectordrawable-animated:1.1.0] C:\Users\Admin\.gradle\caches\transforms-2\files-2.1\666ad058b1d9c3d7c4bdf80afbc3e64c\vectordrawable-animated-1.1.0\AndroidManifest.xml:20:5-22:41
MERGED from [androidx.vectordrawable:vectordrawable-animated:1.1.0] C:\Users\Admin\.gradle\caches\transforms-2\files-2.1\666ad058b1d9c3d7c4bdf80afbc3e64c\vectordrawable-animated-1.1.0\AndroidManifest.xml:20:5-22:41
MERGED from [androidx.vectordrawable:vectordrawable:1.1.0] C:\Users\Admin\.gradle\caches\transforms-2\files-2.1\a9578e6bb35b0664a235fe136bea7086\vectordrawable-1.1.0\AndroidManifest.xml:20:5-22:41
MERGED from [androidx.vectordrawable:vectordrawable:1.1.0] C:\Users\Admin\.gradle\caches\transforms-2\files-2.1\a9578e6bb35b0664a235fe136bea7086\vectordrawable-1.1.0\AndroidManifest.xml:20:5-22:41
MERGED from [androidx.viewpager2:viewpager2:1.0.0] C:\Users\Admin\.gradle\caches\transforms-2\files-2.1\939730d5a02951a4e6900dbf39441da5\jetified-viewpager2-1.0.0\AndroidManifest.xml:20:5-22:41
MERGED from [androidx.viewpager2:viewpager2:1.0.0] C:\Users\Admin\.gradle\caches\transforms-2\files-2.1\939730d5a02951a4e6900dbf39441da5\jetified-viewpager2-1.0.0\AndroidManifest.xml:20:5-22:41
MERGED from [androidx.dynamicanimation:dynamicanimation:1.0.0] C:\Users\Admin\.gradle\caches\transforms-2\files-2.1\7dc97d5beadbae66ede9b95e497a48ab\dynamicanimation-1.0.0\AndroidManifest.xml:20:5-44
MERGED from [androidx.dynamicanimation:dynamicanimation:1.0.0] C:\Users\Admin\.gradle\caches\transforms-2\files-2.1\7dc97d5beadbae66ede9b95e497a48ab\dynamicanimation-1.0.0\AndroidManifest.xml:20:5-44
MERGED from [androidx.fragment:fragment:1.2.4] C:\Users\Admin\.gradle\caches\transforms-2\files-2.1\d498e635f8fdaa9d89d6b2227472c73b\fragment-1.2.4\AndroidManifest.xml:20:5-22:41
MERGED from [androidx.fragment:fragment:1.2.4] C:\Users\Admin\.gradle\caches\transforms-2\files-2.1\d498e635f8fdaa9d89d6b2227472c73b\fragment-1.2.4\AndroidManifest.xml:20:5-22:41
MERGED from [androidx.drawerlayout:drawerlayout:1.1.1] C:\Users\Admin\.gradle\caches\transforms-2\files-2.1\3f15953fb432c97499741f4642da4e9e\drawerlayout-1.1.1\AndroidManifest.xml:20:5-22:41
MERGED from [androidx.drawerlayout:drawerlayout:1.1.1] C:\Users\Admin\.gradle\caches\transforms-2\files-2.1\3f15953fb432c97499741f4642da4e9e\drawerlayout-1.1.1\AndroidManifest.xml:20:5-22:41
MERGED from [androidx.transition:transition:1.3.0] C:\Users\Admin\.gradle\caches\transforms-2\files-2.1\3186091f04618afe9438501662bef563\transition-1.3.0\AndroidManifest.xml:20:5-22:41
MERGED from [androidx.transition:transition:1.3.0] C:\Users\Admin\.gradle\caches\transforms-2\files-2.1\3186091f04618afe9438501662bef563\transition-1.3.0\AndroidManifest.xml:20:5-22:41
MERGED from [androidx.recyclerview:recyclerview:1.1.0] C:\Users\Admin\.gradle\caches\transforms-2\files-2.1\8eb429c297537d6ea02c3f7824ce56bd\recyclerview-1.1.0\AndroidManifest.xml:20:5-22:41
MERGED from [androidx.recyclerview:recyclerview:1.1.0] C:\Users\Admin\.gradle\caches\transforms-2\files-2.1\8eb429c297537d6ea02c3f7824ce56bd\recyclerview-1.1.0\AndroidManifest.xml:20:5-22:41
MERGED from [androidx.viewpager:viewpager:1.0.0] C:\Users\Admin\.gradle\caches\transforms-2\files-2.1\84abe344207c34d4a56c6167bf93e6d4\viewpager-1.0.0\AndroidManifest.xml:20:5-44
MERGED from [androidx.viewpager:viewpager:1.0.0] C:\Users\Admin\.gradle\caches\transforms-2\files-2.1\84abe344207c34d4a56c6167bf93e6d4\viewpager-1.0.0\AndroidManifest.xml:20:5-44
MERGED from [androidx.customview:customview:1.1.0] C:\Users\Admin\.gradle\caches\transforms-2\files-2.1\ab7115890f56e160693dd724b387ceaf\customview-1.1.0\AndroidManifest.xml:20:5-22:41
MERGED from [androidx.customview:customview:1.1.0] C:\Users\Admin\.gradle\caches\transforms-2\files-2.1\ab7115890f56e160693dd724b387ceaf\customview-1.1.0\AndroidManifest.xml:20:5-22:41
MERGED from [androidx.legacy:legacy-support-core-utils:1.0.0] C:\Users\Admin\.gradle\caches\transforms-2\files-2.1\3c5e939b0e6b29bdf460a7fe7fc8149e\legacy-support-core-utils-1.0.0\AndroidManifest.xml:20:5-44
MERGED from [androidx.legacy:legacy-support-core-utils:1.0.0] C:\Users\Admin\.gradle\caches\transforms-2\files-2.1\3c5e939b0e6b29bdf460a7fe7fc8149e\legacy-support-core-utils-1.0.0\AndroidManifest.xml:20:5-44
MERGED from [androidx.loader:loader:1.0.0] C:\Users\Admin\.gradle\caches\transforms-2\files-2.1\f2d63b2c28ee1d548ef27f10c2385caa\loader-1.0.0\AndroidManifest.xml:20:5-44
MERGED from [androidx.loader:loader:1.0.0] C:\Users\Admin\.gradle\caches\transforms-2\files-2.1\f2d63b2c28ee1d548ef27f10c2385caa\loader-1.0.0\AndroidManifest.xml:20:5-44
MERGED from [androidx.navigation:navigation-runtime:2.3.5] C:\Users\Admin\.gradle\caches\transforms-2\files-2.1\4b1d5baef969d8c804b232fa365a7aa8\navigation-runtime-2.3.5\AndroidManifest.xml:20:5-22:41
MERGED from [androidx.navigation:navigation-runtime:2.3.5] C:\Users\Admin\.gradle\caches\transforms-2\files-2.1\4b1d5baef969d8c804b232fa365a7aa8\navigation-runtime-2.3.5\AndroidManifest.xml:20:5-22:41
MERGED from [androidx.activity:activity:1.1.0] C:\Users\Admin\.gradle\caches\transforms-2\files-2.1\90a60abe22ea5e1350069da519987351\jetified-activity-1.1.0\AndroidManifest.xml:20:5-22:41
MERGED from [androidx.activity:activity:1.1.0] C:\Users\Admin\.gradle\caches\transforms-2\files-2.1\90a60abe22ea5e1350069da519987351\jetified-activity-1.1.0\AndroidManifest.xml:20:5-22:41
MERGED from [androidx.navigation:navigation-common:2.3.5] C:\Users\Admin\.gradle\caches\transforms-2\files-2.1\f993303e78f9a1921ec5b4016d06fc20\navigation-common-2.3.5\AndroidManifest.xml:20:5-22:41
MERGED from [androidx.navigation:navigation-common:2.3.5] C:\Users\Admin\.gradle\caches\transforms-2\files-2.1\f993303e78f9a1921ec5b4016d06fc20\navigation-common-2.3.5\AndroidManifest.xml:20:5-22:41
MERGED from [androidx.core:core:1.3.1] C:\Users\Admin\.gradle\caches\transforms-2\files-2.1\b234a824af7fd98a5c54fc0522824a91\core-1.3.1\AndroidManifest.xml:20:5-22:41
MERGED from [androidx.core:core:1.3.1] C:\Users\Admin\.gradle\caches\transforms-2\files-2.1\b234a824af7fd98a5c54fc0522824a91\core-1.3.1\AndroidManifest.xml:20:5-22:41
MERGED from [androidx.lifecycle:lifecycle-viewmodel-savedstate:2.2.0] C:\Users\Admin\.gradle\caches\transforms-2\files-2.1\b81238c1dc5b20d59b0dcafc4f4027a0\jetified-lifecycle-viewmodel-savedstate-2.2.0\AndroidManifest.xml:20:5-22:41
MERGED from [androidx.lifecycle:lifecycle-viewmodel-savedstate:2.2.0] C:\Users\Admin\.gradle\caches\transforms-2\files-2.1\b81238c1dc5b20d59b0dcafc4f4027a0\jetified-lifecycle-viewmodel-savedstate-2.2.0\AndroidManifest.xml:20:5-22:41
MERGED from [androidx.lifecycle:lifecycle-viewmodel:2.3.1] C:\Users\Admin\.gradle\caches\transforms-2\files-2.1\c168a157020fe31d02d282d75c0d361c\lifecycle-viewmodel-2.3.1\AndroidManifest.xml:20:5-22:41
MERGED from [androidx.lifecycle:lifecycle-viewmodel:2.3.1] C:\Users\Admin\.gradle\caches\transforms-2\files-2.1\c168a157020fe31d02d282d75c0d361c\lifecycle-viewmodel-2.3.1\AndroidManifest.xml:20:5-22:41
MERGED from [androidx.versionedparcelable:versionedparcelable:1.1.0] C:\Users\Admin\.gradle\caches\transforms-2\files-2.1\90ecde5404179819368e2359ab771b50\versionedparcelable-1.1.0\AndroidManifest.xml:20:5-22:41
MERGED from [androidx.versionedparcelable:versionedparcelable:1.1.0] C:\Users\Admin\.gradle\caches\transforms-2\files-2.1\90ecde5404179819368e2359ab771b50\versionedparcelable-1.1.0\AndroidManifest.xml:20:5-22:41
MERGED from [androidx.savedstate:savedstate:1.0.0] C:\Users\Admin\.gradle\caches\transforms-2\files-2.1\512febfd0468b29d551bd267612a464f\jetified-savedstate-1.0.0\AndroidManifest.xml:20:5-22:41
MERGED from [androidx.savedstate:savedstate:1.0.0] C:\Users\Admin\.gradle\caches\transforms-2\files-2.1\512febfd0468b29d551bd267612a464f\jetified-savedstate-1.0.0\AndroidManifest.xml:20:5-22:41
MERGED from [androidx.lifecycle:lifecycle-runtime:2.2.0] C:\Users\Admin\.gradle\caches\transforms-2\files-2.1\f32a0d6239ad601f72e9493b4c39c0c2\lifecycle-runtime-2.2.0\AndroidManifest.xml:20:5-22:41
MERGED from [androidx.lifecycle:lifecycle-runtime:2.2.0] C:\Users\Admin\.gradle\caches\transforms-2\files-2.1\f32a0d6239ad601f72e9493b4c39c0c2\lifecycle-runtime-2.2.0\AndroidManifest.xml:20:5-22:41
MERGED from [androidx.lifecycle:lifecycle-livedata:2.3.1] C:\Users\Admin\.gradle\caches\transforms-2\files-2.1\1b23d2c15f7493c601d541da8c74a895\lifecycle-livedata-2.3.1\AndroidManifest.xml:20:5-22:41
MERGED from [androidx.lifecycle:lifecycle-livedata:2.3.1] C:\Users\Admin\.gradle\caches\transforms-2\files-2.1\1b23d2c15f7493c601d541da8c74a895\lifecycle-livedata-2.3.1\AndroidManifest.xml:20:5-22:41
MERGED from [androidx.lifecycle:lifecycle-livedata-core-ktx:2.3.1] C:\Users\Admin\.gradle\caches\transforms-2\files-2.1\9b80a21b28cf4e387a08950b93c3fdfd\jetified-lifecycle-livedata-core-ktx-2.3.1\AndroidManifest.xml:20:5-22:41
MERGED from [androidx.lifecycle:lifecycle-livedata-core-ktx:2.3.1] C:\Users\Admin\.gradle\caches\transforms-2\files-2.1\9b80a21b28cf4e387a08950b93c3fdfd\jetified-lifecycle-livedata-core-ktx-2.3.1\AndroidManifest.xml:20:5-22:41
MERGED from [androidx.lifecycle:lifecycle-livedata-core:2.3.1] C:\Users\Admin\.gradle\caches\transforms-2\files-2.1\1bf9ec35ea65fc70bcb81ae030c5cf4b\lifecycle-livedata-core-2.3.1\AndroidManifest.xml:20:5-22:41
MERGED from [androidx.lifecycle:lifecycle-livedata-core:2.3.1] C:\Users\Admin\.gradle\caches\transforms-2\files-2.1\1bf9ec35ea65fc70bcb81ae030c5cf4b\lifecycle-livedata-core-2.3.1\AndroidManifest.xml:20:5-22:41
MERGED from [androidx.arch.core:core-runtime:2.1.0] C:\Users\Admin\.gradle\caches\transforms-2\files-2.1\a6ca4f9f3ef5bd7ddcaac8d3ff2baf6c\core-runtime-2.1.0\AndroidManifest.xml:20:5-22:41
MERGED from [androidx.arch.core:core-runtime:2.1.0] C:\Users\Admin\.gradle\caches\transforms-2\files-2.1\a6ca4f9f3ef5bd7ddcaac8d3ff2baf6c\core-runtime-2.1.0\AndroidManifest.xml:20:5-22:41
MERGED from [androidx.interpolator:interpolator:1.0.0] C:\Users\Admin\.gradle\caches\transforms-2\files-2.1\722883bbeda4a23af2c332d7342ff3d3\interpolator-1.0.0\AndroidManifest.xml:20:5-44
MERGED from [androidx.interpolator:interpolator:1.0.0] C:\Users\Admin\.gradle\caches\transforms-2\files-2.1\722883bbeda4a23af2c332d7342ff3d3\interpolator-1.0.0\AndroidManifest.xml:20:5-44
MERGED from [androidx.documentfile:documentfile:1.0.0] C:\Users\Admin\.gradle\caches\transforms-2\files-2.1\fb5e65a69b576ac546080993fe26d407\documentfile-1.0.0\AndroidManifest.xml:20:5-44
MERGED from [androidx.documentfile:documentfile:1.0.0] C:\Users\Admin\.gradle\caches\transforms-2\files-2.1\fb5e65a69b576ac546080993fe26d407\documentfile-1.0.0\AndroidManifest.xml:20:5-44
MERGED from [androidx.localbroadcastmanager:localbroadcastmanager:1.0.0] C:\Users\Admin\.gradle\caches\transforms-2\files-2.1\7b69e6173655717e69f5c7f6f1302d3b\localbroadcastmanager-1.0.0\AndroidManifest.xml:20:5-44
MERGED from [androidx.localbroadcastmanager:localbroadcastmanager:1.0.0] C:\Users\Admin\.gradle\caches\transforms-2\files-2.1\7b69e6173655717e69f5c7f6f1302d3b\localbroadcastmanager-1.0.0\AndroidManifest.xml:20:5-44
MERGED from [androidx.print:print:1.0.0] C:\Users\Admin\.gradle\caches\transforms-2\files-2.1\8fe2a3deec1ef3dd659aa5f55d73edd7\print-1.0.0\AndroidManifest.xml:20:5-44
MERGED from [androidx.print:print:1.0.0] C:\Users\Admin\.gradle\caches\transforms-2\files-2.1\8fe2a3deec1ef3dd659aa5f55d73edd7\print-1.0.0\AndroidManifest.xml:20:5-44
MERGED from [androidx.annotation:annotation-experimental:1.0.0] C:\Users\Admin\.gradle\caches\transforms-2\files-2.1\adf8d4ec58c98f5b37616cb4b06b74f4\jetified-annotation-experimental-1.0.0\AndroidManifest.xml:20:5-22:41
MERGED from [androidx.annotation:annotation-experimental:1.0.0] C:\Users\Admin\.gradle\caches\transforms-2\files-2.1\adf8d4ec58c98f5b37616cb4b06b74f4\jetified-annotation-experimental-1.0.0\AndroidManifest.xml:20:5-22:41
INJECTED from D:\Andrew\workspace\openspritz-bible-android-app\app\src\main\AndroidManifest.xml
INJECTED from D:\Andrew\workspace\openspritz-bible-android-app\app\src\main\AndroidManifest.xml
	android:targetSdkVersion
		INJECTED from D:\Andrew\workspace\openspritz-bible-android-app\app\src\main\AndroidManifest.xml
		ADDED from D:\Andrew\workspace\openspritz-bible-android-app\app\src\main\AndroidManifest.xml
		INJECTED from D:\Andrew\workspace\openspritz-bible-android-app\app\src\main\AndroidManifest.xml
	android:minSdkVersion
		INJECTED from D:\Andrew\workspace\openspritz-bible-android-app\app\src\main\AndroidManifest.xml
		ADDED from D:\Andrew\workspace\openspritz-bible-android-app\app\src\main\AndroidManifest.xml
		INJECTED from D:\Andrew\workspace\openspritz-bible-android-app\app\src\main\AndroidManifest.xml
